ST558 - Homework 5: Models with caret
…
#changing the data type for the heart disease column 
heart_data$HeartDisease <- as.factor(heart_data$HeartDisease)

#dropping the ST_Slope variable 
heart_data <- heart_data |>
              select(!ST_Slope)

#viewing the corrected data
heart_data

# A tibble: 918 × 11
     Age Sex   ChestPainType RestingBP Cholesterol FastingBS RestingECG MaxHR
   <dbl> <chr> <chr>             <dbl>       <dbl>     <dbl> <chr>      <dbl>
 1    40 M     ATA                 140         289         0 Normal       172
 2    49 F     NAP                 160         180         0 Normal       156
 3    37 M     ATA                 130         283         0 ST            98
 4    48 F     ASY                 138         214         0 Normal       108
 5    54 M     NAP                 150         195         0 Normal       122
 6    39 M     NAP                 120         339         0 Normal       170
 7    45 F     ATA                 130         237         0 Normal       170
 8    54 M     ATA                 110         208         0 Normal       142
 9    37 M     ASY                 140         207         0 Normal       130
10    48 F     ATA                 120         284         0 Normal       120
# ℹ 908 more rows
# ℹ 3 more variables: ExerciseAngina <chr>, Oldpeak <dbl>, HeartDisease <fct>
…
#adjusting the column type for later use
heart_predict <- heart_predict |>
                 mutate(across(where(is.double), as.factor))

#combining the data into one object and dropping the character variables
heart_data2 <- bind_cols(heart_data, heart_predict)

heart_data2 <- heart_data2 |>
               select(!all_of(dummy_list))
           
heart_data2

# A tibble: 918 × 17
     Age Sex   RestingBP Cholesterol FastingBS MaxHR Oldpeak HeartDisease
   <dbl> <chr>     <dbl>       <dbl>     <dbl> <dbl>   <dbl> <fct>       
 1    40 M           140         289         0   172     0   0           
 2    49 F           160         180         0   156     1   1           
 3    37 M           130         283         0    98     0   0           
 4    48 F           138         214         0   108     1.5 1           
 5    54 M           150         195         0   122     0   0           
 6    39 M           120         339         0   170     0   0           
 7    45 F           130         237         0   170     0   0           
 8    54 M           110         208         0   142     0   0           
 9    37 M           140         207         0   130     1.5 1           
10    48 F           120         284         0   120     0   0           
# ℹ 908 more rows
# ℹ 9 more variables: ChestPainTypeASY <fct>, ChestPainTypeATA <fct>,
#   ChestPainTypeNAP <fct>, ChestPainTypeTA <fct>, RestingECGLVH <fct>,
#   RestingECGNormal <fct>, RestingECGST <fct>, ExerciseAnginaN <fct>,
#   ExerciseAnginaY <fct>
…
